{
    "namespace" : "dbus_types",
    "maps" : [
        { "name" : "ByteArrayMap", "key" : "QString", "value" : "QByteArray" },
        { "name" : "LongLongMap", "key" : "QString", "value" : "qint64" },
        { "name" : "QStringMap", "key" : "QString", "value" : "QString" },
        { "name" : "BooleanMap", "key" : "QString", "value" : "bool" }
    ],
    "arrays" : [
        { "type" : "int", "name" : "IntList"}
    ]
}
